{
    "Prompt": "[uros@peco ~]$",
    "InitialFilter": "SmartCase",
    "Layout": "top-down",
    "Style": {
        "Basic": ["on_default", "default"],
        "SavedSelection": ["bold", "on_cyan", "black"],
        "Selected": ["underline", "on_magenta", "default"],
        "Query": ["yellow"],
        "Matched": ["yellow"]
    }
}
